%YAML 1.1
%TAG !u! tag:unity3d.com,2011:
--- !u!1 &4949361500069141692
GameObject:
  m_ObjectHideFlags: 0
  m_CorrespondingSourceObject: {fileID: 0}
  m_PrefabInstance: {fileID: 0}
  m_PrefabAsset: {fileID: 0}
  serializedVersion: 6
  m_Component:
  - component: {fileID: 6489098668287775176}
  - component: {fileID: 7102042580030009408}
  m_Layer: 0
  m_Name: FanWeapon
  m_TagString: Untagged
  m_Icon: {fileID: 0}
  m_NavMeshLayer: 0
  m_StaticEditorFlags: 0
  m_IsActive: 1
--- !u!4 &6489098668287775176
Transform:
  m_ObjectHideFlags: 0
  m_CorrespondingSourceObject: {fileID: 0}
  m_PrefabInstance: {fileID: 0}
  m_PrefabAsset: {fileID: 0}
  m_GameObject: {fileID: 4949361500069141692}
  m_LocalRotation: {x: 0, y: 0, z: 0, w: 1}
  m_LocalPosition: {x: 0, y: 0, z: 0}
  m_LocalScale: {x: 1, y: 1, z: 1}
  m_Children: []
  m_Father: {fileID: 0}
  m_RootOrder: 0
  m_LocalEulerAnglesHint: {x: 0, y: 0, z: 0}
--- !u!114 &7102042580030009408
MonoBehaviour:
  m_ObjectHideFlags: 0
  m_CorrespondingSourceObject: {fileID: 0}
  m_PrefabInstance: {fileID: 0}
  m_PrefabAsset: {fileID: 0}
  m_GameObject: {fileID: 4949361500069141692}
  m_Enabled: 1
  m_EditorHideFlags: 0
  m_Script: {fileID: 11500000, guid: 74ca6fe1d3734642a019c31e422b613d, type: 3}
  m_Name: 
  m_EditorClassIdentifier: 
  cooldown: 1
  speed: 4
  radius: 0.4
  color: {r: 0, g: 0.35719442, b: 1, a: 1}
  duration: 2
  damage: 0.05
  bulletPrefab: {fileID: 5109857853291101374, guid: b25402da2a0b3ee4b93dba1a27db4968,
    type: 3}
  rows: 2
  columns: 3
  horizontalSpread: 45
  originDistance: 1
  verticalDistance: 2
  originSpeed: 1
  secondarySpeed: 1
  secondaryColor: {r: 0, g: 1, b: 0.82497525, a: 1}
