%YAML 1.1
%TAG !u! tag:unity3d.com,2011:
--- !u!114 &-95970772763372445
MonoBehaviour:
  m_ObjectHideFlags: 0
  m_CorrespondingSourceObject: {fileID: 0}
  m_PrefabInstance: {fileID: 0}
  m_PrefabAsset: {fileID: 0}
  m_GameObject: {fileID: 8813049008690598508}
  m_Enabled: 1
  m_EditorHideFlags: 0
  m_Script: {fileID: 11500000, guid: ce1559e6188d41bfa4ec321747cb84f1, type: 3}
  m_Name: 
  m_EditorClassIdentifier: 
  isActive: 0
  Index: 0
--- !u!1001 &1012473264791692920
PrefabInstance:
  m_ObjectHideFlags: 0
  serializedVersion: 2
  m_Modification:
    m_TransformParent: {fileID: 0}
    m_Modifications:
    - target: {fileID: 8377603988096398356, guid: b25402da2a0b3ee4b93dba1a27db4968,
        type: 3}
      propertyPath: m_Name
      value: Parabola Bullet (Enemy)
      objectReference: {fileID: 0}
    - target: {fileID: 8377603988096398352, guid: b25402da2a0b3ee4b93dba1a27db4968,
        type: 3}
      propertyPath: m_LocalPosition.x
      value: 0
      objectReference: {fileID: 0}
    - target: {fileID: 8377603988096398352, guid: b25402da2a0b3ee4b93dba1a27db4968,
        type: 3}
      propertyPath: m_LocalPosition.y
      value: 0
      objectReference: {fileID: 0}
    - target: {fileID: 8377603988096398352, guid: b25402da2a0b3ee4b93dba1a27db4968,
        type: 3}
      propertyPath: m_LocalPosition.z
      value: 0
      objectReference: {fileID: 0}
    - target: {fileID: 8377603988096398352, guid: b25402da2a0b3ee4b93dba1a27db4968,
        type: 3}
      propertyPath: m_LocalRotation.x
      value: 0
      objectReference: {fileID: 0}
    - target: {fileID: 8377603988096398352, guid: b25402da2a0b3ee4b93dba1a27db4968,
        type: 3}
      propertyPath: m_LocalRotation.y
      value: 0
      objectReference: {fileID: 0}
    - target: {fileID: 8377603988096398352, guid: b25402da2a0b3ee4b93dba1a27db4968,
        type: 3}
      propertyPath: m_LocalRotation.z
      value: 0
      objectReference: {fileID: 0}
    - target: {fileID: 8377603988096398352, guid: b25402da2a0b3ee4b93dba1a27db4968,
        type: 3}
      propertyPath: m_LocalRotation.w
      value: 1
      objectReference: {fileID: 0}
    - target: {fileID: 8377603988096398352, guid: b25402da2a0b3ee4b93dba1a27db4968,
        type: 3}
      propertyPath: m_RootOrder
      value: 0
      objectReference: {fileID: 0}
    - target: {fileID: 8377603988096398352, guid: b25402da2a0b3ee4b93dba1a27db4968,
        type: 3}
      propertyPath: m_LocalEulerAnglesHint.x
      value: 0
      objectReference: {fileID: 0}
    - target: {fileID: 8377603988096398352, guid: b25402da2a0b3ee4b93dba1a27db4968,
        type: 3}
      propertyPath: m_LocalEulerAnglesHint.y
      value: 0
      objectReference: {fileID: 0}
    - target: {fileID: 8377603988096398352, guid: b25402da2a0b3ee4b93dba1a27db4968,
        type: 3}
      propertyPath: m_LocalEulerAnglesHint.z
      value: 0
      objectReference: {fileID: 0}
    - target: {fileID: 8582131431395636975, guid: b25402da2a0b3ee4b93dba1a27db4968,
        type: 3}
      propertyPath: m_AssetId.i0
      value: 0
      objectReference: {fileID: 0}
    - target: {fileID: 8582131431395636975, guid: b25402da2a0b3ee4b93dba1a27db4968,
        type: 3}
      propertyPath: m_AssetId.i1
      value: 0
      objectReference: {fileID: 0}
    - target: {fileID: 8582131431395636975, guid: b25402da2a0b3ee4b93dba1a27db4968,
        type: 3}
      propertyPath: m_AssetId.i2
      value: 0
      objectReference: {fileID: 0}
    - target: {fileID: 8582131431395636975, guid: b25402da2a0b3ee4b93dba1a27db4968,
        type: 3}
      propertyPath: m_AssetId.i3
      value: 0
      objectReference: {fileID: 0}
    - target: {fileID: 8582131431395636975, guid: b25402da2a0b3ee4b93dba1a27db4968,
        type: 3}
      propertyPath: m_AssetId.i4
      value: 0
      objectReference: {fileID: 0}
    - target: {fileID: 8582131431395636975, guid: b25402da2a0b3ee4b93dba1a27db4968,
        type: 3}
      propertyPath: m_AssetId.i5
      value: 0
      objectReference: {fileID: 0}
    - target: {fileID: 8582131431395636975, guid: b25402da2a0b3ee4b93dba1a27db4968,
        type: 3}
      propertyPath: m_AssetId.i6
      value: 0
      objectReference: {fileID: 0}
    - target: {fileID: 8582131431395636975, guid: b25402da2a0b3ee4b93dba1a27db4968,
        type: 3}
      propertyPath: m_AssetId.i7
      value: 0
      objectReference: {fileID: 0}
    - target: {fileID: 8582131431395636975, guid: b25402da2a0b3ee4b93dba1a27db4968,
        type: 3}
      propertyPath: m_AssetId.i8
      value: 0
      objectReference: {fileID: 0}
    - target: {fileID: 8582131431395636975, guid: b25402da2a0b3ee4b93dba1a27db4968,
        type: 3}
      propertyPath: m_AssetId.i9
      value: 0
      objectReference: {fileID: 0}
    - target: {fileID: 8582131431395636975, guid: b25402da2a0b3ee4b93dba1a27db4968,
        type: 3}
      propertyPath: m_AssetId.i10
      value: 0
      objectReference: {fileID: 0}
    - target: {fileID: 8582131431395636975, guid: b25402da2a0b3ee4b93dba1a27db4968,
        type: 3}
      propertyPath: m_AssetId.i11
      value: 0
      objectReference: {fileID: 0}
    - target: {fileID: 8582131431395636975, guid: b25402da2a0b3ee4b93dba1a27db4968,
        type: 3}
      propertyPath: m_AssetId.i12
      value: 0
      objectReference: {fileID: 0}
    - target: {fileID: 8582131431395636975, guid: b25402da2a0b3ee4b93dba1a27db4968,
        type: 3}
      propertyPath: m_AssetId.i13
      value: 0
      objectReference: {fileID: 0}
    - target: {fileID: 8582131431395636975, guid: b25402da2a0b3ee4b93dba1a27db4968,
        type: 3}
      propertyPath: m_AssetId.i14
      value: 0
      objectReference: {fileID: 0}
    - target: {fileID: 8582131431395636975, guid: b25402da2a0b3ee4b93dba1a27db4968,
        type: 3}
      propertyPath: m_AssetId.i15
      value: 0
      objectReference: {fileID: 0}
    m_RemovedComponents:
    - {fileID: 5109857853291101374, guid: b25402da2a0b3ee4b93dba1a27db4968, type: 3}
  m_SourcePrefab: {fileID: 100100000, guid: b25402da2a0b3ee4b93dba1a27db4968, type: 3}
--- !u!1 &8813049008690598508 stripped
GameObject:
  m_CorrespondingSourceObject: {fileID: 8377603988096398356, guid: b25402da2a0b3ee4b93dba1a27db4968,
    type: 3}
  m_PrefabInstance: {fileID: 1012473264791692920}
  m_PrefabAsset: {fileID: 0}
